waveform.vcd
$version Generated by VerilatedVcd $end
$date Wed Dec 20 19:38:17 2023
 $end
$timescale   1ps $end

 $scope module TOP $end
  $var wire  1 ( clock $end
  $var wire  1 * enable $end
  $var wire 32 2 exit [31:0] $end
  $var wire  1 + init_done $end
  $var wire  1 , jtag_TCK $end
  $var wire  1 . jtag_TDI $end
  $var wire  1 0 jtag_TDO_data $end
  $var wire  1 1 jtag_TDO_driven $end
  $var wire  1 - jtag_TMS $end
  $var wire  1 / jtag_TRSTn $end
  $var wire  1 ) reset $end
  $scope module SimJTAG $end
   $var wire 32 3 TICK_DELAY [31:0] $end
   $var wire  1 ( clock $end
   $var wire  1 * enable $end
   $var wire 32 2 exit [31:0] $end
   $var wire  1 + init_done $end
   $var wire  1 ' init_done_sticky $end
   $var wire  1 , jtag_TCK $end
   $var wire  1 . jtag_TDI $end
   $var wire  1 0 jtag_TDO_data $end
   $var wire  1 1 jtag_TDO_driven $end
   $var wire  1 - jtag_TMS $end
   $var wire  1 / jtag_TRSTn $end
   $var wire  1 & r_reset $end
   $var wire 32 # random_bits [31:0] $end
   $var wire  1 ) reset $end
   $var wire 32 % tickCounterNxt [31:0] $end
   $var wire 32 $ tickCounterReg [31:0] $end
  $upscope $end
 $upscope $end
$enddefinitions $end


#0
b10010011010011110101110000101111 #
b00000000000000000000000000000000 $
b00000000000000000000000000110010 %
0&
0'
1(
0)
0*
0+
0,
0-
0.
0/
00
01
b00000000000000000000000000000000 2
b00000000000000000000000000110010 3
#1
0(
#2
1(
#3
0(
#4
1(
#5
0(
#6
1(
#7
0(
#8
1(
#9
0(
#10
b00000000000000000000000000110010 $
b00000000000000000000000000110001 %
1&
1(
1)
1,
#11
0(
#12
1(
0,
#13
0(
#14
1(
1,
#15
0(
#16
1(
0,
#17
0(
#18
1(
1,
#19
0(
#20
0&
1(
0)
0,
#21
0(
#22
1(
#23
0(
#24
1(
#25
0(
#26
1(
#27
0(
#28
1(
#29
0(
#30
1'
1(
1*
1+
#31
0(
#32
b00000000000000000000000000110001 $
b00000000000000000000000000110000 %
1(
#33
0(
#34
b00000000000000000000000000110000 $
b00000000000000000000000000101111 %
1(
#35
0(
#36
b00000000000000000000000000101111 $
b00000000000000000000000000101110 %
1(
#37
0(
#38
b00000000000000000000000000101110 $
b00000000000000000000000000101101 %
1(
#39
0(
#40
b00000000000000000000000000101101 $
b00000000000000000000000000101100 %
1(
#41
0(
#42
b00000000000000000000000000101100 $
b00000000000000000000000000101011 %
1(
#43
0(
#44
b00000000000000000000000000101011 $
b00000000000000000000000000101010 %
1(
#45
0(
#46
b00000000000000000000000000101010 $
b00000000000000000000000000101001 %
1(
#47
0(
#48
b00000000000000000000000000101001 $
b00000000000000000000000000101000 %
1(
#49
0(
#50
b00000000000000000000000000101000 $
b00000000000000000000000000100111 %
1(
#51
0(
#52
b00000000000000000000000000100111 $
b00000000000000000000000000100110 %
1(
#53
0(
#54
b00000000000000000000000000100110 $
b00000000000000000000000000100101 %
1(
#55
0(
#56
b00000000000000000000000000100101 $
b00000000000000000000000000100100 %
1(
#57
0(
#58
b00000000000000000000000000100100 $
b00000000000000000000000000100011 %
1(
#59
0(
#60
b00000000000000000000000000100011 $
b00000000000000000000000000100010 %
1(
#61
0(
#62
b00000000000000000000000000100010 $
b00000000000000000000000000100001 %
1(
#63
0(
#64
b00000000000000000000000000100001 $
b00000000000000000000000000100000 %
1(
#65
0(
#66
b00000000000000000000000000100000 $
b00000000000000000000000000011111 %
1(
#67
0(
#68
b00000000000000000000000000011111 $
b00000000000000000000000000011110 %
1(
#69
0(
#70
b00000000000000000000000000011110 $
b00000000000000000000000000011101 %
1(
#71
0(
#72
b00000000000000000000000000011101 $
b00000000000000000000000000011100 %
1(
#73
0(
#74
b00000000000000000000000000011100 $
b00000000000000000000000000011011 %
1(
#75
0(
#76
b00000000000000000000000000011011 $
b00000000000000000000000000011010 %
1(
#77
0(
#78
b00000000000000000000000000011010 $
b00000000000000000000000000011001 %
1(
#79
0(
#80
b00000000000000000000000000011001 $
b00000000000000000000000000011000 %
1(
#81
0(
#82
b00000000000000000000000000011000 $
b00000000000000000000000000010111 %
1(
#83
0(
#84
b00000000000000000000000000010111 $
b00000000000000000000000000010110 %
1(
#85
0(
#86
b00000000000000000000000000010110 $
b00000000000000000000000000010101 %
1(
#87
0(
#88
b00000000000000000000000000010101 $
b00000000000000000000000000010100 %
1(
#89
0(
#90
b00000000000000000000000000010100 $
b00000000000000000000000000010011 %
1(
#91
0(
#92
b00000000000000000000000000010011 $
b00000000000000000000000000010010 %
1(
#93
0(
#94
b00000000000000000000000000010010 $
b00000000000000000000000000010001 %
1(
#95
0(
#96
b00000000000000000000000000010001 $
b00000000000000000000000000010000 %
1(
#97
0(
#98
b00000000000000000000000000010000 $
b00000000000000000000000000001111 %
1(
#99
0(
#100
b00000000000000000000000000001111 $
b00000000000000000000000000001110 %
1(
#101
0(
#102
b00000000000000000000000000001110 $
b00000000000000000000000000001101 %
1(
#103
0(
#104
b00000000000000000000000000001101 $
b00000000000000000000000000001100 %
1(
#105
0(
#106
b00000000000000000000000000001100 $
b00000000000000000000000000001011 %
1(
#107
0(
#108
b00000000000000000000000000001011 $
b00000000000000000000000000001010 %
1(
#109
0(
#110
b00000000000000000000000000001010 $
b00000000000000000000000000001001 %
1(
#111
0(
#112
b00000000000000000000000000001001 $
b00000000000000000000000000001000 %
1(
#113
0(
#114
b00000000000000000000000000001000 $
b00000000000000000000000000000111 %
1(
#115
0(
#116
b00000000000000000000000000000111 $
b00000000000000000000000000000110 %
1(
#117
0(
#118
b00000000000000000000000000000110 $
b00000000000000000000000000000101 %
1(
#119
0(
#120
b00000000000000000000000000000101 $
b00000000000000000000000000000100 %
1(
#121
0(
#122
b00000000000000000000000000000100 $
b00000000000000000000000000000011 %
1(
#123
0(
#124
b00000000000000000000000000000011 $
b00000000000000000000000000000010 %
1(
#125
0(
#126
b00000000000000000000000000000010 $
b00000000000000000000000000000001 %
1(
#127
0(
#128
b00000000000000000000000000000001 $
b00000000000000000000000000000000 %
1(
#129
0(
#130
b00000000000000000000000000000000 $
b00000000000000000000000000110010 %
1(
#131
0(
#132
b00000000000000000000000000110010 $
b00000000000000000000000000110001 %
1(
1,
1-
1.
1/
#133
0(
#134
b00000000000000000000000000110001 $
b00000000000000000000000000110000 %
1(
#135
0(
#136
b00000000000000000000000000110000 $
b00000000000000000000000000101111 %
1(
#137
0(
#138
b00000000000000000000000000101111 $
b00000000000000000000000000101110 %
1(
#139
0(
#140
b00000000000000000000000000101110 $
b00000000000000000000000000101101 %
1(
#141
0(
#142
b00000000000000000000000000101101 $
b00000000000000000000000000101100 %
1(
#143
0(
#144
b00000000000000000000000000101100 $
b00000000000000000000000000101011 %
1(
#145
0(
#146
b00000000000000000000000000101011 $
b00000000000000000000000000101010 %
1(
#147
0(
#148
b00000000000000000000000000101010 $
b00000000000000000000000000101001 %
1(
#149
0(
#150
b00000000000000000000000000101001 $
b00000000000000000000000000101000 %
1(
#151
0(
#152
b00000000000000000000000000101000 $
b00000000000000000000000000100111 %
1(
#153
0(
#154
b00000000000000000000000000100111 $
b00000000000000000000000000100110 %
1(
#155
0(
#156
b00000000000000000000000000100110 $
b00000000000000000000000000100101 %
1(
#157
0(
#158
b00000000000000000000000000100101 $
b00000000000000000000000000100100 %
1(
#159
0(
#160
b00000000000000000000000000100100 $
b00000000000000000000000000100011 %
1(
#161
0(
#162
b00000000000000000000000000100011 $
b00000000000000000000000000100010 %
1(
#163
0(
#164
b00000000000000000000000000100010 $
b00000000000000000000000000100001 %
1(
#165
0(
#166
b00000000000000000000000000100001 $
b00000000000000000000000000100000 %
1(
#167
0(
#168
b00000000000000000000000000100000 $
b00000000000000000000000000011111 %
1(
#169
0(
#170
b00000000000000000000000000011111 $
b00000000000000000000000000011110 %
1(
#171
0(
#172
b00000000000000000000000000011110 $
b00000000000000000000000000011101 %
1(
#173
0(
#174
b00000000000000000000000000011101 $
b00000000000000000000000000011100 %
1(
#175
0(
#176
b00000000000000000000000000011100 $
b00000000000000000000000000011011 %
1(
#177
0(
#178
b00000000000000000000000000011011 $
b00000000000000000000000000011010 %
1(
#179
0(
#180
b00000000000000000000000000011010 $
b00000000000000000000000000011001 %
1(
#181
0(
#182
b00000000000000000000000000011001 $
b00000000000000000000000000011000 %
1(
#183
0(
#184
b00000000000000000000000000011000 $
b00000000000000000000000000010111 %
1(
#185
0(
#186
b00000000000000000000000000010111 $
b00000000000000000000000000010110 %
1(
#187
0(
#188
b00000000000000000000000000010110 $
b00000000000000000000000000010101 %
1(
#189
0(
#190
b00000000000000000000000000010101 $
b00000000000000000000000000010100 %
1(
#191
0(
#192
b00000000000000000000000000010100 $
b00000000000000000000000000010011 %
1(
#193
0(
#194
b00000000000000000000000000010011 $
b00000000000000000000000000010010 %
1(
#195
0(
#196
b00000000000000000000000000010010 $
b00000000000000000000000000010001 %
1(
#197
0(
#198
b00000000000000000000000000010001 $
b00000000000000000000000000010000 %
1(
